[2020-12-14T00:48:56.903-0600][gc,heap] Heap region size: 1M
[2020-12-14T00:48:56.912-0600][gc     ] Using G1
[2020-12-14T00:48:56.912-0600][gc,heap,coops] Heap address: 0x00000007c0000000, size: 1024 MB, Compressed Oops mode: Zero based, Oop shift amount: 3
[2020-12-14T00:48:56.912-0600][gc,cds       ] Mark closed archive regions in map: [0x00000007fff00000, 0x00000007fff76ff8]
[2020-12-14T00:48:56.912-0600][gc,cds       ] Mark open archive regions in map: [0x00000007ffe00000, 0x00000007ffe46ff8]
[2020-12-14T00:48:56.933-0600][gc           ] Periodic GC disabled
[2020-12-14T00:48:59.033-0600][gc,start     ] GC(0) Pause Young (Normal) (G1 Evacuation Pause)
[2020-12-14T00:48:59.033-0600][gc,task      ] GC(0) Using 4 workers of 4 for evacuation
[2020-12-14T00:48:59.047-0600][gc,phases    ] GC(0)   Pre Evacuate Collection Set: 0.2ms
[2020-12-14T00:48:59.047-0600][gc,phases    ] GC(0)   Evacuate Collection Set: 12.9ms
[2020-12-14T00:48:59.047-0600][gc,phases    ] GC(0)   Post Evacuate Collection Set: 0.4ms
[2020-12-14T00:48:59.047-0600][gc,phases    ] GC(0)   Other: 0.6ms
[2020-12-14T00:48:59.047-0600][gc,heap      ] GC(0) Eden regions: 51->0(44)
[2020-12-14T00:48:59.047-0600][gc,heap      ] GC(0) Survivor regions: 0->7(7)
[2020-12-14T00:48:59.047-0600][gc,heap      ] GC(0) Old regions: 0->0
[2020-12-14T00:48:59.047-0600][gc,heap      ] GC(0) Archive regions: 2->2
[2020-12-14T00:48:59.047-0600][gc,heap      ] GC(0) Humongous regions: 0->0
[2020-12-14T00:48:59.047-0600][gc,metaspace ] GC(0) Metaspace: 15142K->15142K(1062912K)
[2020-12-14T00:48:59.047-0600][gc           ] GC(0) Pause Young (Normal) (G1 Evacuation Pause) 51M->6M(1024M) 14.353ms
[2020-12-14T00:48:59.047-0600][gc,cpu       ] GC(0) User=0.03s Sys=0.01s Real=0.01s
[2020-12-14T00:49:00.146-0600][gc,start     ] GC(1) Pause Young (Concurrent Start) (Metadata GC Threshold)
[2020-12-14T00:49:00.146-0600][gc,task      ] GC(1) Using 4 workers of 4 for evacuation
[2020-12-14T00:49:00.177-0600][gc,mmu       ] GC(1) MMU target violated: 21.0ms (20.0ms/21.0ms)
[2020-12-14T00:49:00.177-0600][gc,phases    ] GC(1)   Pre Evacuate Collection Set: 0.1ms
[2020-12-14T00:49:00.177-0600][gc,phases    ] GC(1)   Evacuate Collection Set: 29.9ms
[2020-12-14T00:49:00.177-0600][gc,phases    ] GC(1)   Post Evacuate Collection Set: 0.5ms
[2020-12-14T00:49:00.177-0600][gc,phases    ] GC(1)   Other: 0.4ms
[2020-12-14T00:49:00.177-0600][gc,heap      ] GC(1) Eden regions: 24->0(49)
[2020-12-14T00:49:00.177-0600][gc,heap      ] GC(1) Survivor regions: 7->2(7)
[2020-12-14T00:49:00.177-0600][gc,heap      ] GC(1) Old regions: 0->6
[2020-12-14T00:49:00.177-0600][gc,heap      ] GC(1) Archive regions: 2->2
[2020-12-14T00:49:00.177-0600][gc,heap      ] GC(1) Humongous regions: 129->129
[2020-12-14T00:49:00.177-0600][gc,metaspace ] GC(1) Metaspace: 20544K->20544K(1067008K)
[2020-12-14T00:49:00.177-0600][gc           ] GC(1) Pause Young (Concurrent Start) (Metadata GC Threshold) 159M->137M(1024M) 30.997ms
[2020-12-14T00:49:00.177-0600][gc,cpu       ] GC(1) User=0.04s Sys=0.00s Real=0.03s
[2020-12-14T00:49:00.177-0600][gc           ] GC(2) Concurrent Cycle
[2020-12-14T00:49:00.177-0600][gc,marking   ] GC(2) Concurrent Clear Claimed Marks
[2020-12-14T00:49:00.177-0600][gc,marking   ] GC(2) Concurrent Clear Claimed Marks 0.050ms
[2020-12-14T00:49:00.177-0600][gc,marking   ] GC(2) Concurrent Scan Root Regions
[2020-12-14T00:49:00.184-0600][gc,marking   ] GC(2) Concurrent Scan Root Regions 7.240ms
[2020-12-14T00:49:00.184-0600][gc,marking   ] GC(2) Concurrent Mark (3.291s)
[2020-12-14T00:49:00.184-0600][gc,marking   ] GC(2) Concurrent Mark From Roots
[2020-12-14T00:49:00.184-0600][gc,task      ] GC(2) Using 1 workers of 1 for marking
[2020-12-14T00:49:00.187-0600][gc,marking   ] GC(2) Concurrent Mark From Roots 2.315ms
[2020-12-14T00:49:00.187-0600][gc,marking   ] GC(2) Concurrent Preclean
[2020-12-14T00:49:00.187-0600][gc,marking   ] GC(2) Concurrent Preclean 0.035ms
[2020-12-14T00:49:00.187-0600][gc,marking   ] GC(2) Concurrent Mark (3.291s, 3.294s) 2.425ms
[2020-12-14T00:49:00.187-0600][gc,start     ] GC(2) Pause Remark
[2020-12-14T00:49:00.188-0600][gc           ] GC(2) Pause Remark 137M->137M(1024M) 1.461ms
[2020-12-14T00:49:00.188-0600][gc,cpu       ] GC(2) User=0.00s Sys=0.00s Real=0.00s
[2020-12-14T00:49:00.188-0600][gc,marking   ] GC(2) Concurrent Rebuild Remembered Sets
[2020-12-14T00:49:00.194-0600][gc,marking   ] GC(2) Concurrent Rebuild Remembered Sets 5.424ms
[2020-12-14T00:49:00.195-0600][gc,start     ] GC(2) Pause Cleanup
[2020-12-14T00:49:00.195-0600][gc           ] GC(2) Pause Cleanup 138M->138M(1024M) 0.125ms
[2020-12-14T00:49:00.195-0600][gc,cpu       ] GC(2) User=0.01s Sys=0.00s Real=0.00s
[2020-12-14T00:49:00.195-0600][gc,marking   ] GC(2) Concurrent Cleanup for Next Mark
[2020-12-14T00:49:00.207-0600][gc,marking   ] GC(2) Concurrent Cleanup for Next Mark 11.669ms
[2020-12-14T00:49:00.207-0600][gc           ] GC(2) Concurrent Cycle 30.094ms
[2020-12-14T00:49:01.655-0600][gc,start     ] GC(3) Pause Young (Normal) (G1 Evacuation Pause)
[2020-12-14T00:49:01.655-0600][gc,task      ] GC(3) Using 4 workers of 4 for evacuation
[2020-12-14T00:49:01.662-0600][gc,phases    ] GC(3)   Pre Evacuate Collection Set: 0.1ms
[2020-12-14T00:49:01.663-0600][gc,phases    ] GC(3)   Evacuate Collection Set: 6.5ms
[2020-12-14T00:49:01.663-0600][gc,phases    ] GC(3)   Post Evacuate Collection Set: 0.5ms
[2020-12-14T00:49:01.663-0600][gc,phases    ] GC(3)   Other: 0.3ms
[2020-12-14T00:49:01.663-0600][gc,heap      ] GC(3) Eden regions: 49->0(46)
[2020-12-14T00:49:01.663-0600][gc,heap      ] GC(3) Survivor regions: 2->5(7)
[2020-12-14T00:49:01.663-0600][gc,heap      ] GC(3) Old regions: 6->6
[2020-12-14T00:49:01.663-0600][gc,heap      ] GC(3) Archive regions: 2->2
[2020-12-14T00:49:01.663-0600][gc,heap      ] GC(3) Humongous regions: 129->129
[2020-12-14T00:49:01.663-0600][gc,metaspace ] GC(3) Metaspace: 29791K->29791K(1077248K)
[2020-12-14T00:49:01.663-0600][gc           ] GC(3) Pause Young (Normal) (G1 Evacuation Pause) 186M->140M(1024M) 7.535ms
[2020-12-14T00:49:01.663-0600][gc,cpu       ] GC(3) User=0.02s Sys=0.00s Real=0.01s
[2020-12-14T00:50:00.704-0600][gc,start     ] GC(4) Pause Young (Concurrent Start) (Metadata GC Threshold)
[2020-12-14T00:50:00.704-0600][gc,task      ] GC(4) Using 4 workers of 4 for evacuation
[2020-12-14T00:50:00.736-0600][gc,mmu       ] GC(4) MMU target violated: 21.0ms (20.0ms/21.0ms)
[2020-12-14T00:50:00.736-0600][gc,phases    ] GC(4)   Pre Evacuate Collection Set: 0.5ms
[2020-12-14T00:50:00.736-0600][gc,phases    ] GC(4)   Evacuate Collection Set: 26.2ms
[2020-12-14T00:50:00.736-0600][gc,phases    ] GC(4)   Post Evacuate Collection Set: 1.4ms
[2020-12-14T00:50:00.736-0600][gc,phases    ] GC(4)   Other: 3.8ms
[2020-12-14T00:50:00.736-0600][gc,heap      ] GC(4) Eden regions: 20->0(46)
[2020-12-14T00:50:00.736-0600][gc,heap      ] GC(4) Survivor regions: 5->5(7)
[2020-12-14T00:50:00.736-0600][gc,heap      ] GC(4) Old regions: 6->8
[2020-12-14T00:50:00.736-0600][gc,heap      ] GC(4) Archive regions: 2->2
[2020-12-14T00:50:00.736-0600][gc,heap      ] GC(4) Humongous regions: 129->129
[2020-12-14T00:50:00.736-0600][gc,metaspace ] GC(4) Metaspace: 34395K->34395K(1081344K)
[2020-12-14T00:50:00.737-0600][gc           ] GC(4) Pause Young (Concurrent Start) (Metadata GC Threshold) 159M->141M(1024M) 32.278ms
[2020-12-14T00:50:00.737-0600][gc,cpu       ] GC(4) User=0.03s Sys=0.03s Real=0.03s
[2020-12-14T00:50:00.737-0600][gc           ] GC(5) Concurrent Cycle
[2020-12-14T00:50:00.737-0600][gc,marking   ] GC(5) Concurrent Clear Claimed Marks
[2020-12-14T00:50:00.738-0600][gc,marking   ] GC(5) Concurrent Clear Claimed Marks 0.872ms
[2020-12-14T00:50:00.738-0600][gc,marking   ] GC(5) Concurrent Scan Root Regions
[2020-12-14T00:50:00.747-0600][gc,marking   ] GC(5) Concurrent Scan Root Regions 8.529ms
[2020-12-14T00:50:00.747-0600][gc,marking   ] GC(5) Concurrent Mark (63.853s)
[2020-12-14T00:50:00.747-0600][gc,marking   ] GC(5) Concurrent Mark From Roots
[2020-12-14T00:50:00.747-0600][gc,task      ] GC(5) Using 1 workers of 1 for marking
[2020-12-14T00:50:00.766-0600][gc,marking   ] GC(5) Concurrent Mark From Roots 19.003ms
[2020-12-14T00:50:00.766-0600][gc,marking   ] GC(5) Concurrent Preclean
[2020-12-14T00:50:00.766-0600][gc,marking   ] GC(5) Concurrent Preclean 0.077ms
[2020-12-14T00:50:00.766-0600][gc,marking   ] GC(5) Concurrent Mark (63.853s, 63.872s) 19.176ms
[2020-12-14T00:50:00.766-0600][gc,start     ] GC(5) Pause Remark
[2020-12-14T00:50:00.773-0600][gc           ] GC(5) Pause Remark 142M->142M(1024M) 7.075ms
[2020-12-14T00:50:00.773-0600][gc,cpu       ] GC(5) User=0.01s Sys=0.00s Real=0.01s
[2020-12-14T00:50:00.794-0600][gc,marking   ] GC(5) Concurrent Rebuild Remembered Sets
[2020-12-14T00:50:00.807-0600][gc,marking   ] GC(5) Concurrent Rebuild Remembered Sets 12.157ms
[2020-12-14T00:50:00.807-0600][gc,start     ] GC(5) Pause Cleanup
[2020-12-14T00:50:00.807-0600][gc           ] GC(5) Pause Cleanup 142M->142M(1024M) 0.184ms
[2020-12-14T00:50:00.807-0600][gc,cpu       ] GC(5) User=0.00s Sys=0.00s Real=0.00s
[2020-12-14T00:50:00.807-0600][gc,marking   ] GC(5) Concurrent Cleanup for Next Mark
[2020-12-14T00:50:00.818-0600][gc,marking   ] GC(5) Concurrent Cleanup for Next Mark 10.502ms
[2020-12-14T00:50:00.818-0600][gc           ] GC(5) Concurrent Cycle 80.956ms
[2020-12-14T01:07:24.740-0600][gc,start     ] GC(6) Pause Young (Normal) (G1 Evacuation Pause)
[2020-12-14T01:07:24.740-0600][gc,task      ] GC(6) Using 4 workers of 4 for evacuation
[2020-12-14T01:07:24.780-0600][gc,mmu       ] GC(6) MMU target violated: 21.0ms (20.0ms/21.0ms)
[2020-12-14T01:07:24.780-0600][gc,phases    ] GC(6)   Pre Evacuate Collection Set: 0.1ms
[2020-12-14T01:07:24.780-0600][gc,phases    ] GC(6)   Evacuate Collection Set: 35.6ms
[2020-12-14T01:07:24.780-0600][gc,phases    ] GC(6)   Post Evacuate Collection Set: 1.2ms
[2020-12-14T01:07:24.780-0600][gc,phases    ] GC(6)   Other: 3.7ms
[2020-12-14T01:07:24.780-0600][gc,heap      ] GC(6) Eden regions: 46->0(47)
[2020-12-14T01:07:24.780-0600][gc,heap      ] GC(6) Survivor regions: 5->4(7)
[2020-12-14T01:07:24.780-0600][gc,heap      ] GC(6) Old regions: 8->11
[2020-12-14T01:07:24.780-0600][gc,heap      ] GC(6) Archive regions: 2->2
[2020-12-14T01:07:24.780-0600][gc,heap      ] GC(6) Humongous regions: 129->129
[2020-12-14T01:07:24.780-0600][gc,metaspace ] GC(6) Metaspace: 37759K->37759K(1083392K)
[2020-12-14T01:07:24.780-0600][gc           ] GC(6) Pause Young (Normal) (G1 Evacuation Pause) 187M->143M(1024M) 40.569ms
[2020-12-14T01:07:24.780-0600][gc,cpu       ] GC(6) User=0.04s Sys=0.04s Real=0.04s
[2020-12-14T01:21:00.853-0600][gc,start     ] GC(7) Pause Young (Normal) (G1 Evacuation Pause)
[2020-12-14T01:21:00.854-0600][gc,task      ] GC(7) Using 4 workers of 4 for evacuation
[2020-12-14T01:21:00.907-0600][gc,mmu       ] GC(7) MMU target violated: 21.0ms (20.0ms/21.0ms)
[2020-12-14T01:21:00.907-0600][gc,phases    ] GC(7)   Pre Evacuate Collection Set: 0.1ms
[2020-12-14T01:21:00.907-0600][gc,phases    ] GC(7)   Evacuate Collection Set: 46.2ms
[2020-12-14T01:21:00.907-0600][gc,phases    ] GC(7)   Post Evacuate Collection Set: 1.6ms
[2020-12-14T01:21:00.907-0600][gc,phases    ] GC(7)   Other: 6.2ms
[2020-12-14T01:21:00.907-0600][gc,heap      ] GC(7) Eden regions: 47->0(46)
[2020-12-14T01:21:00.907-0600][gc,heap      ] GC(7) Survivor regions: 4->5(7)
[2020-12-14T01:21:00.907-0600][gc,heap      ] GC(7) Old regions: 11->11
[2020-12-14T01:21:00.907-0600][gc,heap      ] GC(7) Archive regions: 2->2
[2020-12-14T01:21:00.907-0600][gc,heap      ] GC(7) Humongous regions: 129->129
[2020-12-14T01:21:00.907-0600][gc,metaspace ] GC(7) Metaspace: 38735K->38735K(1085440K)
[2020-12-14T01:21:00.907-0600][gc           ] GC(7) Pause Young (Normal) (G1 Evacuation Pause) 190M->144M(1024M) 53.564ms
[2020-12-14T01:21:00.907-0600][gc,cpu       ] GC(7) User=0.03s Sys=0.07s Real=0.05s
[2020-12-14T01:30:32.841-0600][gc,start     ] GC(8) Pause Young (Normal) (G1 Evacuation Pause)
[2020-12-14T01:30:32.843-0600][gc,task      ] GC(8) Using 4 workers of 4 for evacuation
[2020-12-14T01:30:32.868-0600][gc,mmu       ] GC(8) MMU target violated: 21.0ms (20.0ms/21.0ms)
[2020-12-14T01:30:32.868-0600][gc,phases    ] GC(8)   Pre Evacuate Collection Set: 0.1ms
[2020-12-14T01:30:32.868-0600][gc,phases    ] GC(8)   Evacuate Collection Set: 21.1ms
[2020-12-14T01:30:32.868-0600][gc,phases    ] GC(8)   Post Evacuate Collection Set: 1.1ms
[2020-12-14T01:30:32.868-0600][gc,phases    ] GC(8)   Other: 4.5ms
[2020-12-14T01:30:32.868-0600][gc,heap      ] GC(8) Eden regions: 46->0(47)
[2020-12-14T01:30:32.868-0600][gc,heap      ] GC(8) Survivor regions: 5->4(7)
[2020-12-14T01:30:32.868-0600][gc,heap      ] GC(8) Old regions: 11->12
[2020-12-14T01:30:32.868-0600][gc,heap      ] GC(8) Archive regions: 2->2
[2020-12-14T01:30:32.868-0600][gc,heap      ] GC(8) Humongous regions: 129->129
[2020-12-14T01:30:32.868-0600][gc,metaspace ] GC(8) Metaspace: 38773K->38773K(1085440K)
[2020-12-14T01:30:32.869-0600][gc           ] GC(8) Pause Young (Normal) (G1 Evacuation Pause) 190M->145M(1024M) 27.907ms
[2020-12-14T01:30:32.869-0600][gc,cpu       ] GC(8) User=0.03s Sys=0.04s Real=0.02s
[2020-12-14T01:41:05.889-0600][gc,start     ] GC(9) Pause Young (Normal) (G1 Evacuation Pause)
[2020-12-14T01:41:05.893-0600][gc,task      ] GC(9) Using 4 workers of 4 for evacuation
[2020-12-14T01:41:05.924-0600][gc,mmu       ] GC(9) MMU target violated: 21.0ms (20.0ms/21.0ms)
[2020-12-14T01:41:05.925-0600][gc,phases    ] GC(9)   Pre Evacuate Collection Set: 0.9ms
[2020-12-14T01:41:05.925-0600][gc,phases    ] GC(9)   Evacuate Collection Set: 26.8ms
[2020-12-14T01:41:05.925-0600][gc,phases    ] GC(9)   Post Evacuate Collection Set: 0.7ms
[2020-12-14T01:41:05.925-0600][gc,phases    ] GC(9)   Other: 7.7ms
[2020-12-14T01:41:05.925-0600][gc,heap      ] GC(9) Eden regions: 47->0(46)
[2020-12-14T01:41:05.925-0600][gc,heap      ] GC(9) Survivor regions: 4->5(7)
[2020-12-14T01:41:05.925-0600][gc,heap      ] GC(9) Old regions: 12->12
[2020-12-14T01:41:05.925-0600][gc,heap      ] GC(9) Archive regions: 2->2
[2020-12-14T01:41:05.925-0600][gc,heap      ] GC(9) Humongous regions: 129->129
[2020-12-14T01:41:05.925-0600][gc,metaspace ] GC(9) Metaspace: 38845K->38845K(1085440K)
[2020-12-14T01:41:05.925-0600][gc           ] GC(9) Pause Young (Normal) (G1 Evacuation Pause) 192M->145M(1024M) 36.302ms
[2020-12-14T01:41:05.925-0600][gc,cpu       ] GC(9) User=0.03s Sys=0.05s Real=0.04s
[2020-12-14T01:51:00.882-0600][gc,start     ] GC(10) Pause Young (Normal) (G1 Evacuation Pause)
[2020-12-14T01:51:00.884-0600][gc,task      ] GC(10) Using 4 workers of 4 for evacuation
[2020-12-14T01:51:00.904-0600][gc,mmu       ] GC(10) MMU target violated: 20.1ms (20.0ms/21.0ms)
[2020-12-14T01:51:00.904-0600][gc,phases    ] GC(10)   Pre Evacuate Collection Set: 0.1ms
[2020-12-14T01:51:00.904-0600][gc,phases    ] GC(10)   Evacuate Collection Set: 17.2ms
[2020-12-14T01:51:00.904-0600][gc,phases    ] GC(10)   Post Evacuate Collection Set: 0.7ms
[2020-12-14T01:51:00.904-0600][gc,phases    ] GC(10)   Other: 4.0ms
[2020-12-14T01:51:00.904-0600][gc,heap      ] GC(10) Eden regions: 46->0(47)
[2020-12-14T01:51:00.904-0600][gc,heap      ] GC(10) Survivor regions: 5->4(7)
[2020-12-14T01:51:00.904-0600][gc,heap      ] GC(10) Old regions: 12->14
[2020-12-14T01:51:00.904-0600][gc,heap      ] GC(10) Archive regions: 2->2
[2020-12-14T01:51:00.904-0600][gc,heap      ] GC(10) Humongous regions: 129->129
[2020-12-14T01:51:00.904-0600][gc,metaspace ] GC(10) Metaspace: 38911K->38911K(1085440K)
[2020-12-14T01:51:00.905-0600][gc           ] GC(10) Pause Young (Normal) (G1 Evacuation Pause) 191M->146M(1024M) 22.131ms
[2020-12-14T01:51:00.905-0600][gc,cpu       ] GC(10) User=0.03s Sys=0.03s Real=0.02s
[2020-12-14T02:01:45.891-0600][gc,start     ] GC(11) Pause Young (Normal) (G1 Evacuation Pause)
[2020-12-14T02:01:45.892-0600][gc,task      ] GC(11) Using 4 workers of 4 for evacuation
[2020-12-14T02:01:45.904-0600][gc,phases    ] GC(11)   Pre Evacuate Collection Set: 0.0ms
[2020-12-14T02:01:45.904-0600][gc,phases    ] GC(11)   Evacuate Collection Set: 10.6ms
[2020-12-14T02:01:45.904-0600][gc,phases    ] GC(11)   Post Evacuate Collection Set: 0.5ms
[2020-12-14T02:01:45.904-0600][gc,phases    ] GC(11)   Other: 1.5ms
[2020-12-14T02:01:45.904-0600][gc,heap      ] GC(11) Eden regions: 47->0(48)
[2020-12-14T02:01:45.904-0600][gc,heap      ] GC(11) Survivor regions: 4->3(7)
[2020-12-14T02:01:45.904-0600][gc,heap      ] GC(11) Old regions: 14->14
[2020-12-14T02:01:45.904-0600][gc,heap      ] GC(11) Archive regions: 2->2
[2020-12-14T02:01:45.904-0600][gc,heap      ] GC(11) Humongous regions: 129->129
[2020-12-14T02:01:45.904-0600][gc,metaspace ] GC(11) Metaspace: 38933K->38933K(1085440K)
[2020-12-14T02:01:45.904-0600][gc           ] GC(11) Pause Young (Normal) (G1 Evacuation Pause) 193M->145M(1024M) 12.875ms
[2020-12-14T02:01:45.904-0600][gc,cpu       ] GC(11) User=0.01s Sys=0.01s Real=0.01s
[2020-12-14T02:12:38.868-0600][gc,start     ] GC(12) Pause Young (Normal) (G1 Evacuation Pause)
[2020-12-14T02:12:38.868-0600][gc,task      ] GC(12) Using 4 workers of 4 for evacuation
[2020-12-14T02:12:38.883-0600][gc,phases    ] GC(12)   Pre Evacuate Collection Set: 0.1ms
[2020-12-14T02:12:38.883-0600][gc,phases    ] GC(12)   Evacuate Collection Set: 12.2ms
[2020-12-14T02:12:38.883-0600][gc,phases    ] GC(12)   Post Evacuate Collection Set: 1.0ms
[2020-12-14T02:12:38.883-0600][gc,phases    ] GC(12)   Other: 1.5ms
[2020-12-14T02:12:38.883-0600][gc,heap      ] GC(12) Eden regions: 48->0(48)
[2020-12-14T02:12:38.883-0600][gc,heap      ] GC(12) Survivor regions: 3->3(7)
[2020-12-14T02:12:38.883-0600][gc,heap      ] GC(12) Old regions: 14->14
[2020-12-14T02:12:38.883-0600][gc,heap      ] GC(12) Archive regions: 2->2
[2020-12-14T02:12:38.883-0600][gc,heap      ] GC(12) Humongous regions: 129->129
[2020-12-14T02:12:38.883-0600][gc,metaspace ] GC(12) Metaspace: 38950K->38950K(1085440K)
[2020-12-14T02:12:38.884-0600][gc           ] GC(12) Pause Young (Normal) (G1 Evacuation Pause) 193M->145M(1024M) 15.560ms
[2020-12-14T02:12:38.884-0600][gc,cpu       ] GC(12) User=0.01s Sys=0.02s Real=0.02s
[2020-12-14T02:23:37.413-0600][gc,start     ] GC(13) Pause Young (Normal) (G1 Evacuation Pause)
[2020-12-14T02:23:37.413-0600][gc,task      ] GC(13) Using 4 workers of 4 for evacuation
[2020-12-14T02:23:37.431-0600][gc,phases    ] GC(13)   Pre Evacuate Collection Set: 0.1ms
[2020-12-14T02:23:37.431-0600][gc,phases    ] GC(13)   Evacuate Collection Set: 14.9ms
[2020-12-14T02:23:37.431-0600][gc,phases    ] GC(13)   Post Evacuate Collection Set: 1.0ms
[2020-12-14T02:23:37.431-0600][gc,phases    ] GC(13)   Other: 2.2ms
[2020-12-14T02:23:37.431-0600][gc,heap      ] GC(13) Eden regions: 48->0(47)
[2020-12-14T02:23:37.431-0600][gc,heap      ] GC(13) Survivor regions: 3->4(7)
[2020-12-14T02:23:37.431-0600][gc,heap      ] GC(13) Old regions: 14->14
[2020-12-14T02:23:37.431-0600][gc,heap      ] GC(13) Archive regions: 2->2
[2020-12-14T02:23:37.431-0600][gc,heap      ] GC(13) Humongous regions: 129->129
[2020-12-14T02:23:37.431-0600][gc,metaspace ] GC(13) Metaspace: 38954K->38954K(1085440K)
[2020-12-14T02:23:37.431-0600][gc           ] GC(13) Pause Young (Normal) (G1 Evacuation Pause) 193M->146M(1024M) 18.346ms
[2020-12-14T02:23:37.431-0600][gc,cpu       ] GC(13) User=0.02s Sys=0.03s Real=0.02s
[2020-12-14T02:34:20.921-0600][gc,start     ] GC(14) Pause Young (Normal) (G1 Evacuation Pause)
[2020-12-14T02:34:20.922-0600][gc,task      ] GC(14) Using 4 workers of 4 for evacuation
[2020-12-14T02:34:20.973-0600][gc,mmu       ] GC(14) MMU target violated: 21.0ms (20.0ms/21.0ms)
[2020-12-14T02:34:20.973-0600][gc,phases    ] GC(14)   Pre Evacuate Collection Set: 0.1ms
[2020-12-14T02:34:20.973-0600][gc,phases    ] GC(14)   Evacuate Collection Set: 41.6ms
[2020-12-14T02:34:20.973-0600][gc,phases    ] GC(14)   Post Evacuate Collection Set: 1.5ms
[2020-12-14T02:34:20.973-0600][gc,phases    ] GC(14)   Other: 8.4ms
[2020-12-14T02:34:20.973-0600][gc,heap      ] GC(14) Eden regions: 47->0(48)
[2020-12-14T02:34:20.973-0600][gc,heap      ] GC(14) Survivor regions: 4->3(7)
[2020-12-14T02:34:20.973-0600][gc,heap      ] GC(14) Old regions: 14->14
[2020-12-14T02:34:20.973-0600][gc,heap      ] GC(14) Archive regions: 2->2
[2020-12-14T02:34:20.973-0600][gc,heap      ] GC(14) Humongous regions: 129->129
[2020-12-14T02:34:20.973-0600][gc,metaspace ] GC(14) Metaspace: 38969K->38969K(1085440K)
[2020-12-14T02:34:20.974-0600][gc           ] GC(14) Pause Young (Normal) (G1 Evacuation Pause) 193M->145M(1024M) 52.532ms
[2020-12-14T02:34:20.974-0600][gc,cpu       ] GC(14) User=0.02s Sys=0.04s Real=0.05s
[2020-12-14T02:45:24.914-0600][gc,start     ] GC(15) Pause Young (Normal) (G1 Evacuation Pause)
[2020-12-14T02:45:24.920-0600][gc,task      ] GC(15) Using 4 workers of 4 for evacuation
[2020-12-14T02:45:24.973-0600][gc,mmu       ] GC(15) MMU target violated: 21.0ms (20.0ms/21.0ms)
[2020-12-14T02:45:24.973-0600][gc,phases    ] GC(15)   Pre Evacuate Collection Set: 0.1ms
[2020-12-14T02:45:24.973-0600][gc,phases    ] GC(15)   Evacuate Collection Set: 49.2ms
[2020-12-14T02:45:24.973-0600][gc,phases    ] GC(15)   Post Evacuate Collection Set: 1.3ms
[2020-12-14T02:45:24.973-0600][gc,phases    ] GC(15)   Other: 8.0ms
[2020-12-14T02:45:24.973-0600][gc,heap      ] GC(15) Eden regions: 48->0(47)
[2020-12-14T02:45:24.973-0600][gc,heap      ] GC(15) Survivor regions: 3->4(7)
[2020-12-14T02:45:24.973-0600][gc,heap      ] GC(15) Old regions: 14->14
[2020-12-14T02:45:24.973-0600][gc,heap      ] GC(15) Archive regions: 2->2
[2020-12-14T02:45:24.973-0600][gc,heap      ] GC(15) Humongous regions: 129->129
[2020-12-14T02:45:24.973-0600][gc,metaspace ] GC(15) Metaspace: 38974K->38974K(1085440K)
[2020-12-14T02:45:24.973-0600][gc           ] GC(15) Pause Young (Normal) (G1 Evacuation Pause) 193M->146M(1024M) 58.752ms
[2020-12-14T02:45:24.973-0600][gc,cpu       ] GC(15) User=0.03s Sys=0.06s Real=0.06s
[2020-12-14T02:55:30.332-0600][gc,start     ] GC(16) Pause Young (Normal) (G1 Evacuation Pause)
[2020-12-14T02:55:30.334-0600][gc,task      ] GC(16) Using 4 workers of 4 for evacuation
[2020-12-14T02:55:30.371-0600][gc,mmu       ] GC(16) MMU target violated: 21.0ms (20.0ms/21.0ms)
[2020-12-14T02:55:30.371-0600][gc,phases    ] GC(16)   Pre Evacuate Collection Set: 0.1ms
[2020-12-14T02:55:30.371-0600][gc,phases    ] GC(16)   Evacuate Collection Set: 27.4ms
[2020-12-14T02:55:30.371-0600][gc,phases    ] GC(16)   Post Evacuate Collection Set: 2.8ms
[2020-12-14T02:55:30.371-0600][gc,phases    ] GC(16)   Other: 8.4ms
[2020-12-14T02:55:30.371-0600][gc,heap      ] GC(16) Eden regions: 47->0(48)
[2020-12-14T02:55:30.371-0600][gc,heap      ] GC(16) Survivor regions: 4->3(7)
[2020-12-14T02:55:30.371-0600][gc,heap      ] GC(16) Old regions: 14->14
[2020-12-14T02:55:30.371-0600][gc,heap      ] GC(16) Archive regions: 2->2
[2020-12-14T02:55:30.371-0600][gc,heap      ] GC(16) Humongous regions: 129->129
[2020-12-14T02:55:30.371-0600][gc,metaspace ] GC(16) Metaspace: 39002K->39002K(1085440K)
[2020-12-14T02:55:30.371-0600][gc           ] GC(16) Pause Young (Normal) (G1 Evacuation Pause) 193M->145M(1024M) 38.928ms
[2020-12-14T02:55:30.371-0600][gc,cpu       ] GC(16) User=0.01s Sys=0.03s Real=0.04s
[2020-12-14T03:06:34.469-0600][gc,start     ] GC(17) Pause Young (Normal) (G1 Evacuation Pause)
[2020-12-14T03:06:34.474-0600][gc,task      ] GC(17) Using 4 workers of 4 for evacuation
[2020-12-14T03:06:34.533-0600][gc,mmu       ] GC(17) MMU target violated: 21.0ms (20.0ms/21.0ms)
[2020-12-14T03:06:34.533-0600][gc,phases    ] GC(17)   Pre Evacuate Collection Set: 0.1ms
[2020-12-14T03:06:34.533-0600][gc,phases    ] GC(17)   Evacuate Collection Set: 44.2ms
[2020-12-14T03:06:34.533-0600][gc,phases    ] GC(17)   Post Evacuate Collection Set: 7.1ms
[2020-12-14T03:06:34.533-0600][gc,phases    ] GC(17)   Other: 13.2ms
[2020-12-14T03:06:34.533-0600][gc,heap      ] GC(17) Eden regions: 48->0(47)
[2020-12-14T03:06:34.533-0600][gc,heap      ] GC(17) Survivor regions: 3->4(7)
[2020-12-14T03:06:34.534-0600][gc,heap      ] GC(17) Old regions: 14->14
[2020-12-14T03:06:34.534-0600][gc,heap      ] GC(17) Archive regions: 2->2
[2020-12-14T03:06:34.534-0600][gc,heap      ] GC(17) Humongous regions: 129->129
[2020-12-14T03:06:34.534-0600][gc,metaspace ] GC(17) Metaspace: 39021K->39021K(1085440K)
[2020-12-14T03:06:34.534-0600][gc           ] GC(17) Pause Young (Normal) (G1 Evacuation Pause) 193M->146M(1024M) 64.768ms
[2020-12-14T03:06:34.534-0600][gc,cpu       ] GC(17) User=0.02s Sys=0.06s Real=0.07s
[2020-12-14T03:17:29.044-0600][gc,start     ] GC(18) Pause Young (Normal) (G1 Evacuation Pause)
[2020-12-14T03:17:29.044-0600][gc,task      ] GC(18) Using 4 workers of 4 for evacuation
[2020-12-14T03:17:29.064-0600][gc,mmu       ] GC(18) MMU target violated: 20.1ms (20.0ms/21.0ms)
[2020-12-14T03:17:29.064-0600][gc,phases    ] GC(18)   Pre Evacuate Collection Set: 0.1ms
[2020-12-14T03:17:29.064-0600][gc,phases    ] GC(18)   Evacuate Collection Set: 17.3ms
[2020-12-14T03:17:29.065-0600][gc,phases    ] GC(18)   Post Evacuate Collection Set: 1.2ms
[2020-12-14T03:17:29.065-0600][gc,phases    ] GC(18)   Other: 2.4ms
[2020-12-14T03:17:29.065-0600][gc,heap      ] GC(18) Eden regions: 47->0(48)
[2020-12-14T03:17:29.065-0600][gc,heap      ] GC(18) Survivor regions: 4->3(7)
[2020-12-14T03:17:29.065-0600][gc,heap      ] GC(18) Old regions: 14->14
[2020-12-14T03:17:29.065-0600][gc,heap      ] GC(18) Archive regions: 2->2
[2020-12-14T03:17:29.065-0600][gc,heap      ] GC(18) Humongous regions: 129->129
[2020-12-14T03:17:29.065-0600][gc,metaspace ] GC(18) Metaspace: 39021K->39021K(1085440K)
[2020-12-14T03:17:29.065-0600][gc           ] GC(18) Pause Young (Normal) (G1 Evacuation Pause) 193M->145M(1024M) 21.075ms
[2020-12-14T03:17:29.065-0600][gc,cpu       ] GC(18) User=0.01s Sys=0.03s Real=0.02s
[2020-12-14T03:28:23.542-0600][gc,start     ] GC(19) Pause Young (Normal) (G1 Evacuation Pause)
[2020-12-14T03:28:23.543-0600][gc,task      ] GC(19) Using 4 workers of 4 for evacuation
[2020-12-14T03:28:23.566-0600][gc,mmu       ] GC(19) MMU target violated: 21.0ms (20.0ms/21.0ms)
[2020-12-14T03:28:23.566-0600][gc,phases    ] GC(19)   Pre Evacuate Collection Set: 0.1ms
[2020-12-14T03:28:23.566-0600][gc,phases    ] GC(19)   Evacuate Collection Set: 18.9ms
[2020-12-14T03:28:23.566-0600][gc,phases    ] GC(19)   Post Evacuate Collection Set: 1.1ms
[2020-12-14T03:28:23.566-0600][gc,phases    ] GC(19)   Other: 4.2ms
[2020-12-14T03:28:23.566-0600][gc,heap      ] GC(19) Eden regions: 48->0(48)
[2020-12-14T03:28:23.566-0600][gc,heap      ] GC(19) Survivor regions: 3->3(7)
[2020-12-14T03:28:23.566-0600][gc,heap      ] GC(19) Old regions: 14->14
[2020-12-14T03:28:23.566-0600][gc,heap      ] GC(19) Archive regions: 2->2
[2020-12-14T03:28:23.566-0600][gc,heap      ] GC(19) Humongous regions: 129->129
[2020-12-14T03:28:23.566-0600][gc,metaspace ] GC(19) Metaspace: 39047K->39047K(1085440K)
[2020-12-14T03:28:23.566-0600][gc           ] GC(19) Pause Young (Normal) (G1 Evacuation Pause) 193M->145M(1024M) 24.401ms
[2020-12-14T03:28:23.566-0600][gc,cpu       ] GC(19) User=0.02s Sys=0.04s Real=0.02s
[2020-12-14T03:37:55.624-0600][gc,start     ] GC(20) Pause Young (Normal) (G1 Evacuation Pause)
[2020-12-14T03:37:55.630-0600][gc,task      ] GC(20) Using 4 workers of 4 for evacuation
[2020-12-14T03:37:55.662-0600][gc,mmu       ] GC(20) MMU target violated: 21.0ms (20.0ms/21.0ms)
[2020-12-14T03:37:55.662-0600][gc,phases    ] GC(20)   Pre Evacuate Collection Set: 0.1ms
[2020-12-14T03:37:55.662-0600][gc,phases    ] GC(20)   Evacuate Collection Set: 28.4ms
[2020-12-14T03:37:55.662-0600][gc,phases    ] GC(20)   Post Evacuate Collection Set: 0.9ms
[2020-12-14T03:37:55.662-0600][gc,phases    ] GC(20)   Other: 8.7ms
[2020-12-14T03:37:55.662-0600][gc,heap      ] GC(20) Eden regions: 48->0(48)
[2020-12-14T03:37:55.662-0600][gc,heap      ] GC(20) Survivor regions: 3->3(7)
[2020-12-14T03:37:55.662-0600][gc,heap      ] GC(20) Old regions: 14->14
[2020-12-14T03:37:55.662-0600][gc,heap      ] GC(20) Archive regions: 2->2
[2020-12-14T03:37:55.662-0600][gc,heap      ] GC(20) Humongous regions: 129->129
[2020-12-14T03:37:55.662-0600][gc,metaspace ] GC(20) Metaspace: 39240K->39240K(1085440K)
[2020-12-14T03:37:55.662-0600][gc           ] GC(20) Pause Young (Normal) (G1 Evacuation Pause) 193M->145M(1024M) 38.057ms
[2020-12-14T03:37:55.662-0600][gc,cpu       ] GC(20) User=0.03s Sys=0.05s Real=0.04s
