[2020-12-14T00:48:13.549-0600][gc,heap] Heap region size: 1M
[2020-12-14T00:48:13.553-0600][gc     ] Using G1
[2020-12-14T00:48:13.554-0600][gc,heap,coops] Heap address: 0x00000007e0000000, size: 512 MB, Compressed Oops mode: Zero based, Oop shift amount: 3
[2020-12-14T00:48:13.554-0600][gc,cds       ] Mark closed archive regions in map: [0x00000007fff00000, 0x00000007fff76ff8]
[2020-12-14T00:48:13.554-0600][gc,cds       ] Mark open archive regions in map: [0x00000007ffe00000, 0x00000007ffe46ff8]
[2020-12-14T00:48:13.569-0600][gc           ] Periodic GC disabled
[2020-12-14T00:48:58.781-0600][gc,start     ] GC(0) Pause Young (Normal) (G1 Evacuation Pause)
[2020-12-14T00:48:58.781-0600][gc,task      ] GC(0) Using 4 workers of 4 for evacuation
[2020-12-14T00:48:58.806-0600][gc,mmu       ] GC(0) MMU target violated: 21.0ms (20.0ms/21.0ms)
[2020-12-14T00:48:58.806-0600][gc,phases    ] GC(0)   Pre Evacuate Collection Set: 0.1ms
[2020-12-14T00:48:58.806-0600][gc,phases    ] GC(0)   Evacuate Collection Set: 22.6ms
[2020-12-14T00:48:58.806-0600][gc,phases    ] GC(0)   Post Evacuate Collection Set: 0.5ms
[2020-12-14T00:48:58.806-0600][gc,phases    ] GC(0)   Other: 2.5ms
[2020-12-14T00:48:58.806-0600][gc,heap      ] GC(0) Eden regions: 25->0(21)
[2020-12-14T00:48:58.806-0600][gc,heap      ] GC(0) Survivor regions: 0->4(4)
[2020-12-14T00:48:58.807-0600][gc,heap      ] GC(0) Old regions: 0->1
[2020-12-14T00:48:58.807-0600][gc,heap      ] GC(0) Archive regions: 2->2
[2020-12-14T00:48:58.807-0600][gc,heap      ] GC(0) Humongous regions: 0->0
[2020-12-14T00:48:58.807-0600][gc,metaspace ] GC(0) Metaspace: 7321K->7321K(1056768K)
[2020-12-14T00:48:58.807-0600][gc           ] GC(0) Pause Young (Normal) (G1 Evacuation Pause) 25M->5M(512M) 26.093ms
[2020-12-14T00:48:58.807-0600][gc,cpu       ] GC(0) User=0.03s Sys=0.02s Real=0.02s
[2020-12-14T03:28:24.781-0600][gc,heap,exit ] Heap
[2020-12-14T03:28:24.784-0600][gc,heap,exit ]  garbage-first heap   total 524288K, used 18168K [0x00000007e0000000, 0x0000000800000000)
[2020-12-14T03:28:24.784-0600][gc,heap,exit ]   region size 1024K, 17 young (17408K), 4 survivors (4096K)
[2020-12-14T03:28:24.784-0600][gc,heap,exit ]  Metaspace       used 7973K, capacity 8229K, committed 8448K, reserved 1056768K
[2020-12-14T03:28:24.784-0600][gc,heap,exit ]   class space    used 858K, capacity 937K, committed 1024K, reserved 1048576K
